roger/Lab2/advanced/advanced.sim/sim_1/behav/xsim/a1.vcd
$date
   Mon Sep 23 16:17:38 2024
$end
$version
  2022.2
$end
$timescale
  1ps
$end
$scope module Ripple_Carry_Adder_t $end
$var reg 8 ! a [7:0] $end
$var reg 8 " b [7:0] $end
$var reg 1 # cin $end
$var wire 8 $ sum [7:0] $end
$var wire 1 % cout $end
$scope module R1 $end
$var wire 8 & a [7:0] $end
$var wire 8 ' b [7:0] $end
$var wire 1 ( cin $end
$var wire 1 % cout $end
$var wire 8 $ sum [7:0] $end
$var wire 1 ) c1 $end
$var wire 1 * c2 $end
$var wire 1 + c3 $end
$var wire 1 , c4 $end
$var wire 1 - c5 $end
$var wire 1 . c6 $end
$var wire 1 / c7 $end
$scope module FA0 $end
$var wire 1 0 a $end
$var wire 1 1 b $end
$var wire 1 ( cin $end
$var wire 1 ) cout $end
$var wire 1 2 sum $end
$var wire 1 3 con1 $end
$scope module XOR1 $end
$var wire 1 0 a $end
$var wire 1 1 b $end
$var wire 1 3 out $end
$var wire 1 4 con1 $end
$var wire 1 5 con2 $end
$var wire 1 6 con3 $end
$upscope $end
$scope module XOR2 $end
$var wire 1 ( a $end
$var wire 1 3 b $end
$var wire 1 2 out $end
$var wire 1 7 con1 $end
$var wire 1 8 con2 $end
$var wire 1 9 con3 $end
$upscope $end
$scope module MJ1 $end
$var wire 1 0 a $end
$var wire 1 1 b $end
$var wire 1 ( c $end
$var wire 1 ) out $end
$var wire 1 : con1 $end
$var wire 1 ; con2 $end
$var wire 1 < con3 $end
$var wire 1 = con4 $end
$scope module AND1 $end
$var wire 1 0 a $end
$var wire 1 1 b $end
$var wire 1 : out $end
$var wire 1 > con1 $end
$upscope $end
$scope module AND2 $end
$var wire 1 0 a $end
$var wire 1 ( b $end
$var wire 1 ; out $end
$var wire 1 ? con1 $end
$upscope $end
$scope module OR1 $end
$var wire 1 : a $end
$var wire 1 ; b $end
$var wire 1 < out $end
$var wire 1 @ con1 $end
$var wire 1 A con2 $end
$upscope $end
$scope module AND4 $end
$var wire 1 1 a $end
$var wire 1 ( b $end
$var wire 1 = out $end
$var wire 1 B con1 $end
$upscope $end
$scope module OR2 $end
$var wire 1 < a $end
$var wire 1 = b $end
$var wire 1 ) out $end
$var wire 1 C con1 $end
$var wire 1 D con2 $end
$upscope $end
$upscope $end
$upscope $end
$scope module FA1 $end
$var wire 1 E a $end
$var wire 1 F b $end
$var wire 1 ) cin $end
$var wire 1 * cout $end
$var wire 1 G sum $end
$var wire 1 H con1 $end
$scope module XOR1 $end
$var wire 1 E a $end
$var wire 1 F b $end
$var wire 1 H out $end
$var wire 1 I con1 $end
$var wire 1 J con2 $end
$var wire 1 K con3 $end
$upscope $end
$scope module XOR2 $end
$var wire 1 ) a $end
$var wire 1 H b $end
$var wire 1 G out $end
$var wire 1 L con1 $end
$var wire 1 M con2 $end
$var wire 1 N con3 $end
$upscope $end
$scope module MJ1 $end
$var wire 1 E a $end
$var wire 1 F b $end
$var wire 1 ) c $end
$var wire 1 * out $end
$var wire 1 O con1 $end
$var wire 1 P con2 $end
$var wire 1 Q con3 $end
$var wire 1 R con4 $end
$scope module AND1 $end
$var wire 1 E a $end
$var wire 1 F b $end
$var wire 1 O out $end
$var wire 1 S con1 $end
$upscope $end
$scope module AND2 $end
$var wire 1 E a $end
$var wire 1 ) b $end
$var wire 1 P out $end
$var wire 1 T con1 $end
$upscope $end
$scope module OR1 $end
$var wire 1 O a $end
$var wire 1 P b $end
$var wire 1 Q out $end
$var wire 1 U con1 $end
$var wire 1 V con2 $end
$upscope $end
$scope module AND4 $end
$var wire 1 F a $end
$var wire 1 ) b $end
$var wire 1 R out $end
$var wire 1 W con1 $end
$upscope $end
$scope module OR2 $end
$var wire 1 Q a $end
$var wire 1 R b $end
$var wire 1 * out $end
$var wire 1 X con1 $end
$var wire 1 Y con2 $end
$upscope $end
$upscope $end
$upscope $end
$scope module FA2 $end
$var wire 1 Z a $end
$var wire 1 [ b $end
$var wire 1 * cin $end
$var wire 1 + cout $end
$var wire 1 \ sum $end
$var wire 1 ] con1 $end
$scope module XOR1 $end
$var wire 1 Z a $end
$var wire 1 [ b $end
$var wire 1 ] out $end
$var wire 1 ^ con1 $end
$var wire 1 _ con2 $end
$var wire 1 ` con3 $end
$upscope $end
$scope module XOR2 $end
$var wire 1 * a $end
$var wire 1 ] b $end
$var wire 1 \ out $end
$var wire 1 a con1 $end
$var wire 1 b con2 $end
$var wire 1 c con3 $end
$upscope $end
$scope module MJ1 $end
$var wire 1 Z a $end
$var wire 1 [ b $end
$var wire 1 * c $end
$var wire 1 + out $end
$var wire 1 d con1 $end
$var wire 1 e con2 $end
$var wire 1 f con3 $end
$var wire 1 g con4 $end
$scope module AND1 $end
$var wire 1 Z a $end
$var wire 1 [ b $end
$var wire 1 d out $end
$var wire 1 h con1 $end
$upscope $end
$scope module AND2 $end
$var wire 1 Z a $end
$var wire 1 * b $end
$var wire 1 e out $end
$var wire 1 i con1 $end
$upscope $end
$scope module OR1 $end
$var wire 1 d a $end
$var wire 1 e b $end
$var wire 1 f out $end
$var wire 1 j con1 $end
$var wire 1 k con2 $end
$upscope $end
$scope module AND4 $end
$var wire 1 [ a $end
$var wire 1 * b $end
$var wire 1 g out $end
$var wire 1 l con1 $end
$upscope $end
$scope module OR2 $end
$var wire 1 f a $end
$var wire 1 g b $end
$var wire 1 + out $end
$var wire 1 m con1 $end
$var wire 1 n con2 $end
$upscope $end
$upscope $end
$upscope $end
$scope module FA3 $end
$var wire 1 o a $end
$var wire 1 p b $end
$var wire 1 + cin $end
$var wire 1 , cout $end
$var wire 1 q sum $end
$var wire 1 r con1 $end
$scope module XOR1 $end
$var wire 1 o a $end
$var wire 1 p b $end
$var wire 1 r out $end
$var wire 1 s con1 $end
$var wire 1 t con2 $end
$var wire 1 u con3 $end
$upscope $end
$scope module XOR2 $end
$var wire 1 + a $end
$var wire 1 r b $end
$var wire 1 q out $end
$var wire 1 v con1 $end
$var wire 1 w con2 $end
$var wire 1 x con3 $end
$upscope $end
$scope module MJ1 $end
$var wire 1 o a $end
$var wire 1 p b $end
$var wire 1 + c $end
$var wire 1 , out $end
$var wire 1 y con1 $end
$var wire 1 z con2 $end
$var wire 1 { con3 $end
$var wire 1 | con4 $end
$scope module AND1 $end
$var wire 1 o a $end
$var wire 1 p b $end
$var wire 1 y out $end
$var wire 1 } con1 $end
$upscope $end
$scope module AND2 $end
$var wire 1 o a $end
$var wire 1 + b $end
$var wire 1 z out $end
$var wire 1 ~ con1 $end
$upscope $end
$scope module OR1 $end
$var wire 1 y a $end
$var wire 1 z b $end
$var wire 1 { out $end
$var wire 1 !! con1 $end
$var wire 1 "! con2 $end
$upscope $end
$scope module AND4 $end
$var wire 1 p a $end
$var wire 1 + b $end
$var wire 1 | out $end
$var wire 1 #! con1 $end
$upscope $end
$scope module OR2 $end
$var wire 1 { a $end
$var wire 1 | b $end
$var wire 1 , out $end
$var wire 1 $! con1 $end
$var wire 1 %! con2 $end
$upscope $end
$upscope $end
$upscope $end
$scope module FA4 $end
$var wire 1 &! a $end
$var wire 1 '! b $end
$var wire 1 , cin $end
$var wire 1 - cout $end
$var wire 1 (! sum $end
$var wire 1 )! con1 $end
$scope module XOR1 $end
$var wire 1 &! a $end
$var wire 1 '! b $end
$var wire 1 )! out $end
$var wire 1 *! con1 $end
$var wire 1 +! con2 $end
$var wire 1 ,! con3 $end
$upscope $end
$scope module XOR2 $end
$var wire 1 , a $end
$var wire 1 )! b $end
$var wire 1 (! out $end
$var wire 1 -! con1 $end
$var wire 1 .! con2 $end
$var wire 1 /! con3 $end
$upscope $end
$scope module MJ1 $end
$var wire 1 &! a $end
$var wire 1 '! b $end
$var wire 1 , c $end
$var wire 1 - out $end
$var wire 1 0! con1 $end
$var wire 1 1! con2 $end
$var wire 1 2! con3 $end
$var wire 1 3! con4 $end
$scope module AND1 $end
$var wire 1 &! a $end
$var wire 1 '! b $end
$var wire 1 0! out $end
$var wire 1 4! con1 $end
$upscope $end
$scope module AND2 $end
$var wire 1 &! a $end
$var wire 1 , b $end
$var wire 1 1! out $end
$var wire 1 5! con1 $end
$upscope $end
$scope module OR1 $end
$var wire 1 0! a $end
$var wire 1 1! b $end
$var wire 1 2! out $end
$var wire 1 6! con1 $end
$var wire 1 7! con2 $end
$upscope $end
$scope module AND4 $end
$var wire 1 '! a $end
$var wire 1 , b $end
$var wire 1 3! out $end
$var wire 1 8! con1 $end
$upscope $end
$scope module OR2 $end
$var wire 1 2! a $end
$var wire 1 3! b $end
$var wire 1 - out $end
$var wire 1 9! con1 $end
$var wire 1 :! con2 $end
$upscope $end
$upscope $end
$upscope $end
$scope module FA5 $end
$var wire 1 ;! a $end
$var wire 1 <! b $end
$var wire 1 - cin $end
$var wire 1 . cout $end
$var wire 1 =! sum $end
$var wire 1 >! con1 $end
$scope module XOR1 $end
$var wire 1 ;! a $end
$var wire 1 <! b $end
$var wire 1 >! out $end
$var wire 1 ?! con1 $end
$var wire 1 @! con2 $end
$var wire 1 A! con3 $end
$upscope $end
$scope module XOR2 $end
$var wire 1 - a $end
$var wire 1 >! b $end
$var wire 1 =! out $end
$var wire 1 B! con1 $end
$var wire 1 C! con2 $end
$var wire 1 D! con3 $end
$upscope $end
$scope module MJ1 $end
$var wire 1 ;! a $end
$var wire 1 <! b $end
$var wire 1 - c $end
$var wire 1 . out $end
$var wire 1 E! con1 $end
$var wire 1 F! con2 $end
$var wire 1 G! con3 $end
$var wire 1 H! con4 $end
$scope module AND1 $end
$var wire 1 ;! a $end
$var wire 1 <! b $end
$var wire 1 E! out $end
$var wire 1 I! con1 $end
$upscope $end
$scope module AND2 $end
$var wire 1 ;! a $end
$var wire 1 - b $end
$var wire 1 F! out $end
$var wire 1 J! con1 $end
$upscope $end
$scope module OR1 $end
$var wire 1 E! a $end
$var wire 1 F! b $end
$var wire 1 G! out $end
$var wire 1 K! con1 $end
$var wire 1 L! con2 $end
$upscope $end
$scope module AND4 $end
$var wire 1 <! a $end
$var wire 1 - b $end
$var wire 1 H! out $end
$var wire 1 M! con1 $end
$upscope $end
$scope module OR2 $end
$var wire 1 G! a $end
$var wire 1 H! b $end
$var wire 1 . out $end
$var wire 1 N! con1 $end
$var wire 1 O! con2 $end
$upscope $end
$upscope $end
$upscope $end
$scope module FA6 $end
$var wire 1 P! a $end
$var wire 1 Q! b $end
$var wire 1 . cin $end
$var wire 1 / cout $end
$var wire 1 R! sum $end
$var wire 1 S! con1 $end
$scope module XOR1 $end
$var wire 1 P! a $end
$var wire 1 Q! b $end
$var wire 1 S! out $end
$var wire 1 T! con1 $end
$var wire 1 U! con2 $end
$var wire 1 V! con3 $end
$upscope $end
$scope module XOR2 $end
$var wire 1 . a $end
$var wire 1 S! b $end
$var wire 1 R! out $end
$var wire 1 W! con1 $end
$var wire 1 X! con2 $end
$var wire 1 Y! con3 $end
$upscope $end
$scope module MJ1 $end
$var wire 1 P! a $end
$var wire 1 Q! b $end
$var wire 1 . c $end
$var wire 1 / out $end
$var wire 1 Z! con1 $end
$var wire 1 [! con2 $end
$var wire 1 \! con3 $end
$var wire 1 ]! con4 $end
$scope module AND1 $end
$var wire 1 P! a $end
$var wire 1 Q! b $end
$var wire 1 Z! out $end
$var wire 1 ^! con1 $end
$upscope $end
$scope module AND2 $end
$var wire 1 P! a $end
$var wire 1 . b $end
$var wire 1 [! out $end
$var wire 1 _! con1 $end
$upscope $end
$scope module OR1 $end
$var wire 1 Z! a $end
$var wire 1 [! b $end
$var wire 1 \! out $end
$var wire 1 `! con1 $end
$var wire 1 a! con2 $end
$upscope $end
$scope module AND4 $end
$var wire 1 Q! a $end
$var wire 1 . b $end
$var wire 1 ]! out $end
$var wire 1 b! con1 $end
$upscope $end
$scope module OR2 $end
$var wire 1 \! a $end
$var wire 1 ]! b $end
$var wire 1 / out $end
$var wire 1 c! con1 $end
$var wire 1 d! con2 $end
$upscope $end
$upscope $end
$upscope $end
$scope module FA7 $end
$var wire 1 e! a $end
$var wire 1 f! b $end
$var wire 1 / cin $end
$var wire 1 % cout $end
$var wire 1 g! sum $end
$var wire 1 h! con1 $end
$scope module XOR1 $end
$var wire 1 e! a $end
$var wire 1 f! b $end
$var wire 1 h! out $end
$var wire 1 i! con1 $end
$var wire 1 j! con2 $end
$var wire 1 k! con3 $end
$upscope $end
$scope module XOR2 $end
$var wire 1 / a $end
$var wire 1 h! b $end
$var wire 1 g! out $end
$var wire 1 l! con1 $end
$var wire 1 m! con2 $end
$var wire 1 n! con3 $end
$upscope $end
$scope module MJ1 $end
$var wire 1 e! a $end
$var wire 1 f! b $end
$var wire 1 / c $end
$var wire 1 % out $end
$var wire 1 o! con1 $end
$var wire 1 p! con2 $end
$var wire 1 q! con3 $end
$var wire 1 r! con4 $end
$scope module AND1 $end
$var wire 1 e! a $end
$var wire 1 f! b $end
$var wire 1 o! out $end
$var wire 1 s! con1 $end
$upscope $end
$scope module AND2 $end
$var wire 1 e! a $end
$var wire 1 / b $end
$var wire 1 p! out $end
$var wire 1 t! con1 $end
$upscope $end
$scope module OR1 $end
$var wire 1 o! a $end
$var wire 1 p! b $end
$var wire 1 q! out $end
$var wire 1 u! con1 $end
$var wire 1 v! con2 $end
$upscope $end
$scope module AND4 $end
$var wire 1 f! a $end
$var wire 1 / b $end
$var wire 1 r! out $end
$var wire 1 w! con1 $end
$upscope $end
$scope module OR2 $end
$var wire 1 q! a $end
$var wire 1 r! b $end
$var wire 1 % out $end
$var wire 1 x! con1 $end
$var wire 1 y! con2 $end
$upscope $end
$upscope $end
$upscope $end
$upscope $end
$upscope $end
$enddefinitions $end
#0
$dumpvars
b0 !
1!!
b0 "
1"!
0#
1#!
b0 $
1$!
0%
1%!
b0 &
0&!
b0 '
0'!
0(
0(!
0)
0)!
0*
1*!
0+
1+!
0,
1,!
0-
1-!
0.
1.!
0/
1/!
00
00!
01
01!
02
02!
03
03!
14
14!
15
15!
16
16!
17
17!
18
18!
19
19!
0:
1:!
0;
0;!
0<
0<!
0=
0=!
1>
0>!
1?
1?!
1@
1@!
1A
1A!
1B
1B!
1C
1C!
1D
1D!
0E
0E!
0F
0F!
0G
0G!
0H
0H!
1I
1I!
1J
1J!
1K
1K!
1L
1L!
1M
1M!
1N
1N!
0O
1O!
0P
0P!
0Q
0Q!
0R
0R!
1S
0S!
1T
1T!
1U
1U!
1V
1V!
1W
1W!
1X
1X!
1Y
1Y!
0Z
0Z!
0[
0[!
0\
0\!
0]
0]!
1^
1^!
1_
1_!
1`
1`!
1a
1a!
1b
1b!
1c
1c!
0d
1d!
0e
0e!
0f
0f!
0g
0g!
1h
0h!
1i
1i!
1j
1j!
1k
1k!
1l
1l!
1m
1m!
1n
1n!
0o
0o!
0p
0p!
0q
0q!
0r
0r!
1s
1s!
1t
1t!
1u
1u!
1v
1v!
1w
1w!
1x
1x!
0y
1y!
0z
0{
0|
1}
1~
$end
#1000
1#
b1 $
1(
12
17
08
1?
1B
#2000
b1 "
0#
b1 $
b1 '
0'!
0(
11
12
13
14
06
17
18
09
0<!
1>
1?
1B
0F
0Q!
0[
0f!
0p
#3000
1#
b10 $
1(
1)
02
07
18
19
1=
1?
0B
0D
1G
1L
0M
1T
1W
#4000
b10 "
0#
b10 $
b10 '
0'!
0(
0)
0*
01
03
14
16
17
18
19
0<!
0=
1>
1?
1B
1D
1F
1G
1H
1I
0K
1L
1M
0N
0Q!
0R
1S
1T
1W
1Y
0[
0\
1a
1b
0f!
1i
1l
0p
#5000
1#
b11 $
1(
12
17
08
1?
1B
#6000
b11 "
0#
b11 $
b11 '
0'!
0(
11
12
13
14
06
17
18
09
0<!
1>
1?
1B
1F
0Q!
0[
0f!
0p
#7000
1#
b100 $
1(
1)
1*
02
07
18
19
1=
1?
0B
0D
0G
0L
1M
1N
1R
1T
0W
0Y
1\
1a
0b
1i
1l
#8000
b100 "
0#
1#!
b100 $
b100 '
0'!
0(
0)
0*
0+
01
03
14
16
17
18
19
0<!
0=
1>
1?
1B
1D
0F
0H
1I
1K
1L
1M
1N
0Q!
0R
1S
1T
1W
1Y
1[
1\
1]
1^
0`
1a
1b
0c
0f!
0g
1h
1i
1l
1n
0p
0q
1v
1w
1~
#9000
1#
b101 $
1(
12
17
08
1?
1B
#10000
b101 "
0#
b101 $
b101 '
0'!
0(
11
12
13
14
06
17
18
09
0<!
1>
1?
1B
0F
0Q!
1[
0f!
0p
#11000
1#
b110 $
1(
1)
02
07
18
19
1=
1?
0B
0D
1G
1L
0M
1T
1W
#12000
b110 "
0#
1#!
b110 $
b110 '
0'!
0(
0)
0*
0+
01
03
14
16
17
18
19
0<!
0=
1>
1?
1B
1D
1F
1G
1H
1I
0K
1L
1M
0N
0Q!
0R
1S
1T
1W
1Y
1[
1\
1a
1b
0c
0f!
0g
1i
1l
1n
0p
0q
1v
1w
1~
#13000
1#
b111 $
1(
12
17
08
1?
1B
#14000
b111 "
0#
b111 $
b111 '
0'!
0(
11
12
13
14
06
17
18
09
0<!
1>
1?
1B
1F
0Q!
1[
0f!
0p
#15000
1#
1#!
b1000 $
1(
1)
1*
1+
02
07
18
19
1=
1?
0B
0D
0G
0L
1M
1N
1R
1T
0W
0Y
0\
0a
1b
1c
1g
1i
0l
0n
1q
1v
0w
1~
#16000
b1000 "
0#
1#!
b1000 $
1%!
b1000 '
0'!
0(
0(!
0)
0*
0+
0,
1-!
1.!
01
03
14
15!
16
17
18
18!
19
0<!
0=
1>
1?
1B
1D
0F
0H
1I
1K
1L
1M
1N
0Q!
0R
1S
1T
1W
1Y
0[
0]
1^
1`
1a
1b
1c
0f!
0g
1h
1i
1l
1n
1p
1q
1r
1s
0u
1v
1w
0x
0|
1}
1~
#17000
1#
b1001 $
1(
12
17
08
1?
1B
#18000
b1001 "
0#
b1001 $
b1001 '
0'!
0(
11
12
13
14
06
17
18
09
0<!
1>
1?
1B
0F
0Q!
0[
0f!
1p
#19000
1#
b1010 $
1(
1)
02
07
18
19
1=
1?
0B
0D
1G
1L
0M
1T
1W
#20000
b1010 "
0#
b1010 $
b1010 '
0'!
0(
0)
0*
01
03
14
16
17
18
19
0<!
0=
1>
1?
1B
1D
1F
1G
1H
1I
0K
1L
1M
0N
0Q!
0R
1S
1T
1W
1Y
0[
0\
1a
1b
0f!
1i
1l
1p
#21000
1#
b1011 $
1(
12
17
08
1?
1B
#22000
b1011 "
0#
b1011 $
b1011 '
0'!
0(
11
12
13
14
06
17
18
09
0<!
1>
1?
1B
1F
0Q!
0[
0f!
1p
#23000
1#
b1100 $
1(
1)
1*
02
07
18
19
1=
1?
0B
0D
0G
0L
1M
1N
1R
1T
0W
0Y
1\
1a
0b
1i
1l
#24000
b1100 "
0#
1#!
b1100 $
1%!
b1100 '
0'!
0(
0(!
0)
0*
0+
0,
1-!
1.!
01
03
14
15!
16
17
18
18!
19
0<!
0=
1>
1?
1B
1D
0F
0H
1I
1K
1L
1M
1N
0Q!
0R
1S
1T
1W
1Y
1[
1\
1]
1^
0`
1a
1b
0c
0f!
0g
1h
1i
1l
1n
1p
1q
1v
1w
0x
0|
1~
#25000
1#
b1101 $
1(
12
17
08
1?
1B
#26000
b1101 "
0#
b1101 $
b1101 '
0'!
0(
11
12
13
14
06
17
18
09
0<!
1>
1?
1B
0F
0Q!
1[
0f!
1p
#27000
1#
b1110 $
1(
1)
02
07
18
19
1=
1?
0B
0D
1G
1L
0M
1T
1W
#28000
b1110 "
0#
1#!
b1110 $
1%!
b1110 '
0'!
0(
0(!
0)
0*
0+
0,
1-!
1.!
01
03
14
15!
16
17
18
18!
19
0<!
0=
1>
1?
1B
1D
1F
1G
1H
1I
0K
1L
1M
0N
0Q!
0R
1S
1T
1W
1Y
1[
1\
1a
1b
0c
0f!
0g
1i
1l
1n
1p
1q
1v
1w
0x
0|
1~
#29000
1#
b1111 $
1(
12
17
08
1?
1B
#30000
b1111 "
0#
b1111 $
b1111 '
0'!
0(
11
12
13
14
06
17
18
09
0<!
1>
1?
1B
1F
0Q!
1[
0f!
1p
#31000
1#
0#!
b10000 $
0%!
1(
1(!
1)
1*
1+
1,
1-!
0.!
02
15!
07
18
18!
19
1=
1?
0B
0D
0G
0L
1M
1N
1R
1T
0W
0Y
0\
0a
1b
1c
1g
1i
0l
0n
0q
0v
1w
1x
1|
1~
#32000
b10000 "
0#
1#!
b10000 $
1%!
b10000 '
1'!
0(
1(!
0)
1)!
0*
1*!
0+
0,
0,!
0-
1-!
1.!
0/!
01
03
03!
14
14!
15!
16
17
18
18!
19
1:!
0<!
0=
0=!
1>
1?
1B
1B!
1C!
1D
0F
0H
1I
1J!
1K
1L
1M
1M!
1N
0Q!
0R
1S
1T
1W
1Y
0[
0]
1^
1`
1a
1b
1c
0f!
0g
1h
1i
1l
1n
0p
0r
1s
1u
1v
1w
1x
0|
1}
1~
#33000
1#
b10001 $
1(
12
17
08
1?
1B
#34000
b10001 "
0#
b10001 $
b10001 '
1'!
0(
11
12
13
14
06
17
18
09
0<!
1>
1?
1B
0F
0Q!
0[
0f!
0p
#35000
1#
b10010 $
1(
1)
02
07
18
19
1=
1?
0B
0D
1G
1L
0M
1T
1W
#36000
b10010 "
0#
b10010 $
b10010 '
1'!
0(
0)
0*
01
03
14
16
17
18
19
0<!
0=
1>
1?
1B
1D
1F
1G
1H
1I
0K
1L
1M
0N
0Q!
0R
1S
1T
1W
1Y
0[
0\
1a
1b
0f!
1i
1l
0p
#37000
1#
b10011 $
1(
12
17
08
1?
1B
#38000
b10011 "
0#
b10011 $
b10011 '
1'!
0(
11
12
13
14
06
17
18
09
0<!
1>
1?
1B
1F
0Q!
0[
0f!
0p
#39000
1#
b10100 $
1(
1)
1*
02
07
18
19
1=
1?
0B
0D
0G
0L
1M
1N
1R
1T
0W
0Y
1\
1a
0b
1i
1l
#40000
b10100 "
0#
1#!
b10100 $
b10100 '
1'!
0(
0)
0*
0+
01
03
14
16
17
18
19
0<!
0=
1>
1?
1B
1D
0F
0H
1I
1K
1L
1M
1N
0Q!
0R
1S
1T
1W
1Y
1[
1\
1]
1^
0`
1a
1b
0c
0f!
0g
1h
1i
1l
1n
0p
0q
1v
1w
1~
#41000
1#
b10101 $
1(
12
17
08
1?
1B
#42000
b10101 "
0#
b10101 $
b10101 '
1'!
0(
11
12
13
14
06
17
18
09
0<!
1>
1?
1B
0F
0Q!
1[
0f!
0p
#43000
1#
b10110 $
1(
1)
02
07
18
19
1=
1?
0B
0D
1G
1L
0M
1T
1W
#44000
b10110 "
0#
1#!
b10110 $
b10110 '
1'!
0(
0)
0*
0+
01
03
14
16
17
18
19
0<!
0=
1>
1?
1B
1D
1F
1G
1H
1I
0K
1L
1M
0N
0Q!
0R
1S
1T
1W
1Y
1[
1\
1a
1b
0c
0f!
0g
1i
1l
1n
0p
0q
1v
1w
1~
#45000
1#
b10111 $
1(
12
17
08
1?
1B
#46000
b10111 "
0#
b10111 $
b10111 '
1'!
0(
11
12
13
14
06
17
18
09
0<!
1>
1?
1B
1F
0Q!
1[
0f!
0p
#47000
1#
1#!
b11000 $
1(
1)
1*
1+
02
07
18
19
1=
1?
0B
0D
0G
0L
1M
1N
1R
1T
0W
0Y
0\
0a
1b
1c
1g
1i
0l
0n
1q
1v
0w
1~
#48000
b11000 "
0#
1#!
b11000 $
1%!
b11000 '
1'!
0(
1(!
0)
0*
0+
0,
0-
1-!
1.!
0/!
01
03
03!
14
15!
16
17
18
18!
19
1:!
0<!
0=
0=!
1>
1?
1B
1B!
1C!
1D
0F
0H
1I
1J!
1K
1L
1M
1M!
1N
0Q!
0R
1S
1T
1W
1Y
0[
0]
1^
1`
1a
1b
1c
0f!
0g
1h
1i
1l
1n
1p
1q
1r
1s
0u
1v
1w
0x
0|
1}
1~
#49000
1#
b11001 $
1(
12
17
08
1?
1B
#50000
b11001 "
0#
b11001 $
b11001 '
1'!
0(
11
12
13
14
06
17
18
09
0<!
1>
1?
1B
0F
0Q!
0[
0f!
1p
#51000
1#
b11010 $
1(
1)
02
07
18
19
1=
1?
0B
0D
1G
1L
0M
1T
1W
#52000
b11010 "
0#
b11010 $
b11010 '
1'!
0(
0)
0*
01
03
14
16
17
18
19
0<!
0=
1>
1?
1B
1D
1F
1G
1H
1I
0K
1L
1M
0N
0Q!
0R
1S
1T
1W
1Y
0[
0\
1a
1b
0f!
1i
1l
1p
#53000
1#
b11011 $
1(
12
17
08
1?
1B
#54000
b11011 "
0#
b11011 $
b11011 '
1'!
0(
11
12
13
14
06
17
18
09
0<!
1>
1?
1B
1F
0Q!
0[
0f!
1p
#55000
1#
b11100 $
1(
1)
1*
02
07
18
19
1=
1?
0B
0D
0G
0L
1M
1N
1R
1T
0W
0Y
1\
1a
0b
1i
1l
#56000
b11100 "
0#
1#!
b11100 $
1%!
b11100 '
1'!
0(
1(!
0)
0*
0+
0,
0-
1-!
1.!
0/!
01
03
03!
14
15!
16
17
18
18!
19
1:!
0<!
0=
0=!
1>
1?
1B
1B!
1C!
1D
0F
0H
1I
1J!
1K
1L
1M
1M!
1N
0Q!
0R
1S
1T
1W
1Y
1[
1\
1]
1^
0`
1a
1b
0c
0f!
0g
1h
1i
1l
1n
1p
1q
1v
1w
0x
0|
1~
#57000
1#
b11101 $
1(
12
17
08
1?
1B
#58000
b11101 "
0#
b11101 $
b11101 '
1'!
0(
11
12
13
14
06
17
18
09
0<!
1>
1?
1B
0F
0Q!
1[
0f!
1p
#59000
1#
b11110 $
1(
1)
02
07
18
19
1=
1?
0B
0D
1G
1L
0M
1T
1W
#60000
b11110 "
0#
1#!
b11110 $
1%!
b11110 '
1'!
0(
1(!
0)
0*
0+
0,
0-
1-!
1.!
0/!
01
03
03!
14
15!
16
17
18
18!
19
1:!
0<!
0=
0=!
1>
1?
1B
1B!
1C!
1D
1F
1G
1H
1I
1J!
0K
1L
1M
1M!
0N
0Q!
0R
1S
1T
1W
1Y
1[
1\
1a
1b
0c
0f!
0g
1i
1l
1n
1p
1q
1v
1w
0x
0|
1~
#61000
1#
b11111 $
1(
12
17
08
1?
1B
#62000
b11111 "
0#
b11111 $
b11111 '
1'!
0(
11
12
13
14
06
17
18
09
0<!
1>
1?
1B
1F
0Q!
1[
0f!
1p
#63000
1#
0#!
b100000 $
0%!
1(
0(!
1)
1*
1+
1,
1-
0-!
1.!
1/!
02
13!
15!
07
18
08!
19
0:!
1=
1=!
1?
0B
1B!
0C!
0D
0G
1J!
0L
1M
1M!
1N
1R
1T
0W
0Y
0\
0a
1b
1c
1g
1i
0l
0n
0q
0v
1w
1x
1|
1~
#64000
b100000 "
0#
1#!
b100000 $
1%!
b100000 '
0'!
0(
0)
0)!
0*
1*!
0+
0,
1,!
0-
1-!
0.
1.!
1/!
01
03
03!
14
14!
15!
16
17
18
18!
19
1:!
1<!
0=
1=!
1>
1>!
1?
1?!
0A!
1B
1B!
1C!
1D
0D!
0F
0H
0H!
1I
1I!
1J!
1K
1L
1M
1M!
1N
1O!
0Q!
0R
0R!
1S
1T
1W
1W!
1X!
1Y
0[
0]
1^
1_!
1`
1a
1b
1b!
1c
0f!
0g
1h
1i
1l
1n
0p
0r
1s
1u
1v
1w
1x
0|
1}
1~
#65000
1#
b100001 $
1(
12
17
08
1?
1B
#66000
b100001 "
0#
b100001 $
b100001 '
0'!
0(
11
12
13
14
06
17
18
09
1<!
1>
1?
1B
0F
0Q!
0[
0f!
0p
#67000
1#
b100010 $
1(
1)
02
07
18
19
1=
1?
0B
0D
1G
1L
0M
1T
1W
#68000
b100010 "
0#
b100010 $
b100010 '
0'!
0(
0)
0*
01
03
14
16
17
18
19
1<!
0=
1>
1?
1B
1D
1F
1G
1H
1I
0K
1L
1M
0N
0Q!
0R
1S
1T
1W
1Y
0[
0\
1a
1b
0f!
1i
1l
0p
#69000
1#
b100011 $
1(
12
17
08
1?
1B
#70000
b100011 "
0#
b100011 $
b100011 '
0'!
0(
11
12
13
14
06
17
18
09
1<!
1>
1?
1B
1F
0Q!
0[
0f!
0p
#71000
1#
b100100 $
1(
1)
1*
02
07
18
19
1=
1?
0B
0D
0G
0L
1M
1N
1R
1T
0W
0Y
1\
1a
0b
1i
1l
#72000
b100100 "
0#
1#!
b100100 $
b100100 '
0'!
0(
0)
0*
0+
01
03
14
16
17
18
19
1<!
0=
1>
1?
1B
1D
0F
0H
1I
1K
1L
1M
1N
0Q!
0R
1S
1T
1W
1Y
1[
1\
1]
1^
0`
1a
1b
0c
0f!
0g
1h
1i
1l
1n
0p
0q
1v
1w
1~
#73000
1#
b100101 $
1(
12
17
08
1?
1B
#74000
b100101 "
0#
b100101 $
b100101 '
0'!
0(
11
12
13
14
06
17
18
09
1<!
1>
1?
1B
0F
0Q!
1[
0f!
0p
#75000
1#
b100110 $
1(
1)
02
07
18
19
1=
1?
0B
0D
1G
1L
0M
1T
1W
#76000
b100110 "
0#
1#!
b100110 $
b100110 '
0'!
0(
0)
0*
0+
01
03
14
16
17
18
19
1<!
0=
1>
1?
1B
1D
1F
1G
1H
1I
0K
1L
1M
0N
0Q!
0R
1S
1T
1W
1Y
1[
1\
1a
1b
0c
0f!
0g
1i
1l
1n
0p
0q
1v
1w
1~
#77000
1#
b100111 $
1(
12
17
08
1?
1B
#78000
b100111 "
0#
b100111 $
b100111 '
0'!
0(
11
12
13
14
06
17
18
09
1<!
1>
1?
1B
1F
0Q!
1[
0f!
0p
#79000
1#
1#!
b101000 $
1(
1)
1*
1+
02
07
18
19
1=
1?
0B
0D
0G
0L
1M
1N
1R
1T
0W
0Y
0\
0a
1b
1c
1g
1i
0l
0n
1q
1v
0w
1~
