johnny/Lab3/FIFO_t.vcd
$date
	Wed Oct 09 14:44:05 2024
$end
$version
	Icarus Verilog
$end
$timescale
	1ps
$end
$scope module FIFO_t $end
$var wire 1 ! error $end
$var wire 8 " dout [7:0] $end
$var reg 1 # clk $end
$var reg 8 $ din [7:0] $end
$var reg 1 % ren $end
$var reg 1 & rst_n $end
$var reg 1 ' wen $end
$scope module FF $end
$var wire 1 # clk $end
$var wire 8 ( din [7:0] $end
$var wire 1 % ren $end
$var wire 1 & rst_n $end
$var wire 1 ' wen $end
$var reg 5 ) COUNTER [4:0] $end
$var reg 3 * Raddr [2:0] $end
$var reg 3 + Waddr [2:0] $end
$var reg 8 , dotcar [7:0] $end
$var reg 8 - dout [7:0] $end
$var reg 1 ! error $end
$upscope $end
$upscope $end
$enddefinitions $end
#0
$dumpvars
bx -
bx ,
b0 +
b0 *
b0 )
b0 (
0'
0&
1%
b0 $
0#
bx "
x!
$end
#5000
b0 "
b0 -
0!
1#
#10000
0#
1&
#15000
1!
bx "
bx -
1#
#20000
0#
0%
1'
b111000 $
b111000 (
#25000
b1 )
b1 +
0!
1#
#30000
0#
b1011 $
b1011 (
#35000
b10 )
b10 +
1#
#40000
0#
b101010 $
b101010 (
#45000
b11 )
b11 +
1#
#50000
0#
b1010 $
b1010 (
#55000
b100 )
b100 +
1#
#60000
0#
b10111 $
b10111 (
#65000
b101 )
b101 +
1#
#70000
0#
b10100 $
b10100 (
#75000
b110 )
b110 +
1#
#80000
0#
b110 $
b110 (
#85000
b111 )
b111 +
1#
#90000
0#
b1010101 $
b1010101 (
#95000
b1000 )
b0 +
1#
#100000
0#
b101101 $
b101101 (
1%
#105000
b111 )
b1 *
b111000 "
b111000 -
1#
#110000
0#
b1100 $
b1100 (
0%
#115000
b1000 )
b1 +
bx "
bx -
1#
#120000
0#
b1001101 $
b1001101 (
#125000
1!
1#
#130000
0#
b100001 $
b100001 (
0'
#135000
0!
1#
#140000
0#
b1100011 $
b1100011 (
1'
1%
#145000
b111 )
b10 *
b1011 "
b1011 -
1#
#150000
0#
b1 $
b1 (
#155000
b110 )
b11 *
b101010 "
b101010 -
1#
#160000
0#
b100100 $
b100100 (
#165000
b101 )
b100 *
b1010 "
b1010 -
1#
#170000
0#
b0 $
b0 (
0%
#175000
b110 )
b10 +
bx "
bx -
1#
#180000
0#
b1111111 $
b1111111 (
#185000
b111 )
b11 +
1#
#190000
0#
b1010111 $
b1010111 (
#195000
b1000 )
b100 +
1#
#200000
0#
b111111 $
b111111 (
#205000
1!
1#
#210000
0#
b11001 $
b11001 (
#215000
1#
#220000
0#
b10010 $
b10010 (
#225000
1#
#230000
0#
b1001 $
b1001 (
#235000
1#
#240000
0#
b11111 $
b11111 (
#245000
1#
#250000
0#
b110111 $
b110111 (
1%
0'
#255000
0!
b111 )
b101 *
b10111 "
b10111 -
1#
#260000
0#
b101100 $
b101100 (
#265000
b110 )
b110 *
b10100 "
b10100 -
1#
#270000
0#
#275000
b101 )
b111 *
b110 "
b110 -
1#
#280000
0#
#285000
b100 )
b0 *
b1010101 "
b1010101 -
1#
#290000
0#
#295000
b11 )
b1 *
b1100 "
b1100 -
1#
#300000
0#
#305000
b10 )
b10 *
b0 "
b0 -
1#
#310000
0#
#315000
b1 )
b11 *
b1111111 "
b1111111 -
1#
#320000
0#
#325000
b0 )
b100 *
b1010111 "
b1010111 -
1#
#330000
0#
#335000
1!
bx "
bx -
1#
